{
    "count": 1281,
    "next": "https://pokeapi.co/api/v2/pokemon?offset=20&limit=20",
    "previous": null,
    "results": [
      {
        "name": "bulbasaur",
        "url": "https://pokeapi.co/api/v2/pokemon/1/"
      },
      {
        "name": "ivysaur",
        "url": "https://pokeapi.co/api/v2/pokemon/2/"
      },
      {
        "name": "venusaur",
        "url": "https://pokeapi.co/api/v2/pokemon/3/"
      },
      {
        "name": "charmander",
        "url": "https://pokeapi.co/api/v2/pokemon/4/"
      },
      {
        "name": "charmeleon",
        "url": "https://pokeapi.co/api/v2/pokemon/5/"
      },
      {
        "name": "charizard",
        "url": "https://pokeapi.co/api/v2/pokemon/6/"
      },
      {
        "name": "squirtle",
        "url": "https://pokeapi.co/api/v2/pokemon/7/"
      },
      {
        "name": "wartortle",
        "url": "https://pokeapi.co/api/v2/pokemon/8/"
      },
      {
        "name": "blastoise",
        "url": "https://pokeapi.co/api/v2/pokemon/9/"
      },
      {
        "name": "caterpie",
        "url": "https://pokeapi.co/api/v2/pokemon/10/"
      },
      {
        "name": "metapod",
        "url": "https://pokeapi.co/api/v2/pokemon/11/"
      },
      {
        "name": "butterfree",
        "url": "https://pokeapi.co/api/v2/pokemon/12/"
      },
      {
        "name": "weedle",
        "url": "https://pokeapi.co/api/v2/pokemon/13/"
      },
      {
        "name": "kakuna",
        "url": "https://pokeapi.co/api/v2/pokemon/14/"
      },
      {
        "name": "beedrill",
        "url": "https://pokeapi.co/api/v2/pokemon/15/"
      },
      {
        "name": "pidgey",
        "url": "https://pokeapi.co/api/v2/pokemon/16/"
      },
      {
        "name": "pidgeotto",
        "url": "https://pokeapi.co/api/v2/pokemon/17/"
      },
      {
        "name": "pidgeot",
        "url": "https://pokeapi.co/api/v2/pokemon/18/"
      },
      {
        "name": "rattata",
        "url": "https://pokeapi.co/api/v2/pokemon/19/"
      },
      {
        "name": "raticate",
        "url": "https://pokeapi.co/api/v2/pokemon/20/"
      },
      {
        "name":"Oddish",
        "img":"http://img.pokemondb.net/artwork/oddish.jpg","type":["Grass","Poison"],
        "stats": {
                "hp":"45",
                "attack":"50",
                "defense":"55",
                "spattack":"75",
                "spdefense":"65",
                "speed":"30"
        },
        "damages": {
                "normal":"1",
                "fire":"2",
                "water":"0.5",
                "electric":"0.5",
                "grass":"0.25",
                "ice":"2",
                "fight":"0.5",
                "poison":"1",
                "ground":"1",
                "flying":"2",
                "psychic":"2",
                "bug":"1",
                "rock":"1",
                "ghost":"1",
                "dragon":"1",
                "dark":"1",
                "steel":"1"
        },
        "misc": {
                "classification":"weed pokemon","height":"1’08”",
                "weight":"11.9",
                "happiness":"70"
        }
      }
    ]
  }